Quantitative Methods for Linguistic Data
…
For the transitions example just given, we first set up a dataframe with three columns:

Conversation id

Mean transition duration during the first minute (= 60000 msec)

Mean transition duration after the first minute

d <- transitions %>% 
  group_by(file) %>%
  summarise(meanDurFirst = mean(dur[time < 60000]),
            meanDurAfter = mean(dur[time > 60000]))
d

## # A tibble: 349 x 3
##    file       meanDurFirst meanDurAfter
##    <fct>             <dbl>        <dbl>
##  1 sw3154.eaf        231.        245.  
##  2 sw3155.eaf         19         153.  
##  3 sw3156.eaf        131          -9.11
##  4 sw3159.eaf        166.        -28.3 
##  5 sw3161.eaf       -352.         34.3 
##  6 sw3168.eaf         31.7       120.  
##  7 sw3169.eaf        NaN         202.  
##  8 sw3171.eaf        -76.8      -120.  
##  9 sw3174.eaf        378.         75.7 
## 10 sw3182.eaf        330.        139.  
## # ... with 339 more rows
…
